<svg width="4" height="6" viewBox="0 0 4 6" fill="none" xmlns="http://www.w3.org/2000/svg">
<path d="M3.66568 5.9041L3.88906 5.70756C3.95882 5.6457 3.99725 5.56341 3.99725 5.47546C3.99725 5.38756 3.95882 5.30517 3.88906 5.24331L1.35846 3.00134L3.89187 0.756787C3.96162 0.69503 4 0.612639 4 0.524736C4 0.436833 3.96162 0.354393 3.89187 0.292588L3.66987 0.0960008C3.52551 -0.0320003 3.29035 -0.0320003 3.14599 0.0960008L0.118816 2.76841C0.0491124 2.83017 1.11111e-07 2.91246 1.07234e-07 3.00115L1.0719e-07 3.00217C1.03345e-07 3.09012 0.0491675 3.17242 0.118816 3.23417L3.13778 5.9041C3.20749 5.96595 3.30318 5.9999 3.40239 6C3.50167 6 3.59604 5.96595 3.66568 5.9041Z" fill="black"/>
</svg>
